<svg xmlns="http://www.w3.org/2000/svg" viewBox="0 0 72.624 1200">
  <defs>
    <style>
      .cls-1 {
        fill: red;
        opacity: 0.49;
      }
    </style>
  </defs>
  <path id="Path_5" data-name="Path 5" class="cls-1" d="M2090.518,1140V784.737l-32.9-91.558V-60h-39.724V1132.105Z" transform="translate(-2017.894 60)"/>
</svg>
