<svg xmlns="http://www.w3.org/2000/svg" viewBox="0 0 1203.573 111.944">
  <defs>
    <style>
      .cls-1 {
        fill: none;
        stroke: red;
        stroke-width: 2px;
      }
    </style>
  </defs>
  <path id="Path_7" data-name="Path 7" class="cls-1" d="M3086.828,71l30.945-30.945h335.369V150H2251.568V71Z" transform="translate(-2250.568 -39.055)"/>
</svg>
